teste_cenario1.vcd
$date
  Sat Apr  1 17:51:26 2023
$end
$version
  GHDL v0
$end
$timescale
  1 fs
$end
$scope module standard $end
$upscope $end
$scope module std_logic_1164 $end
$upscope $end
$scope module textio $end
$upscope $end
$scope module math_real $end
$upscope $end
$scope module numeric_std $end
$upscope $end
$scope module elephant_memory_tb_cenario1 $end
$var reg 1 ! clk_in $end
$var reg 1 " rst_in $end
$var reg 1 # iniciar_in $end
$var reg 4 $ botoes_display_in[3:0] $end
$var reg 7 % botoes_carta_in[6:0] $end
$var integer 32 & caso $end
$var reg 7 ' db_estado0_out[6:0] $end
$var reg 7 ( db_estado1_out[6:0] $end
$var reg 7 ) placar1_out[6:0] $end
$var reg 7 * placar2_out[6:0] $end
$var reg 7 + total_out[6:0] $end
$var reg 1 , keep_simulating $end
$scope module dut $end
$var reg 1 - clock $end
$var reg 1 . reset $end
$var reg 1 / iniciar $end
$var reg 4 0 botoes_display[3:0] $end
$var reg 7 1 botoes_carta[6:0] $end
$var reg 42 2 display[41:0] $end
$var reg 1 3 fim_jogo_sig $end
$var reg 1 4 jogada_display_sig $end
$var reg 1 5 jogada_carta_sig $end
$var reg 1 6 conflito_mem_sig $end
$var reg 1 7 igual_selecao_sig $end
$var reg 1 8 par_correto_sig $end
$var reg 1 9 zera_regs_sig $end
$var reg 1 : reg_en_display_sig $end
$var reg 1 ; reg_en_carta_sig $end
$var reg 1 < reg_en_jogada1_sig $end
$var reg 1 = reg_en_jogada2_sig $end
$var reg 1 > reg_en_chute1_sig $end
$var reg 1 ? reg_en_chute2_sig $end
$var reg 1 @ conta_player_sig $end
$var reg 1 A escreve_sig $end
$var reg 1 B jogada_sel_mux_sig $end
$var reg 1 C troca_jogador_sig $end
$var reg 1 D time_out_sig $end
$var reg 1 E zera_timeout_sig $end
$var reg 1 F db_esgotou_sig $end
$var reg 1 G jogadr_vez_sig $end
$var reg 8 H db_estado_sig[7:0] $end
$var reg 4 I pontos_jogador1_sig[3:0] $end
$var reg 4 J pontos_jogador2_sig[3:0] $end
$var reg 4 K pontos_total_sig[3:0] $end
$var reg 5 L posicao_carta1_sig[4:0] $end
$var reg 5 M posicao_carta2_sig[4:0] $end
$var reg 4 N opcode_s[3:0] $end
$var reg 4 O s_end_animal[3:0] $end
$var reg 1 P fim_display_sig $end
$var reg 4 Q botoes_display_not[3:0] $end
$var reg 7 R botoes_cartas_not[6:0] $end
$var reg 42 S display_not[41:0] $end
$var reg 1 T troca_posicao_sig $end
$var reg 1 U endereco_random_sel_sig $end
$var reg 1 V en_random_generator_sig $end
$var reg 1 W registra_random_sig $end
$var reg 1 X zera_time_prep_sig $end
$var reg 1 Y en_time_prep_sig $end
$var reg 1 Z pos_random_invalida_sig $end
$var reg 1 [ fim_time_prep_sig $end
$scope module uc $end
$var reg 1 \ clock $end
$var reg 1 ] reset $end
$var reg 1 ^ iniciar $end
$var reg 1 _ fim_jogo $end
$var reg 1 ` jogada_display $end
$var reg 1 a jogada_carta $end
$var reg 1 b conflito_mem $end
$var reg 1 c igual_selecao $end
$var reg 1 d par_correto $end
$var reg 1 e fim_display $end
$var reg 1 f zera_regs $end
$var reg 1 g reg_en_display $end
$var reg 1 h reg_en_carta $end
$var reg 1 i reg_en_jogada1 $end
$var reg 1 j reg_en_jogada2 $end
$var reg 1 k reg_en_chute1 $end
$var reg 1 l reg_en_chute2 $end
$var reg 1 m conta_player $end
$var reg 1 n escreve $end
$var reg 1 o jogada_sel_mux $end
$var reg 1 p troca_jogador $end
$var reg 1 q time_out $end
$var reg 1 r zera_timeout $end
$var reg 1 s db_esgotou $end
$var reg 8 t db_estado[7:0] $end
$var reg 4 u opcode[3:0] $end
$var reg 1 v troca_posicao $end
$var reg 1 w endereco_random_sel $end
$var reg 1 x en_random_generator $end
$var reg 1 y registra_random $end
$var reg 1 z zera_time_prep $end
$var reg 1 { en_time_prep $end
$var reg 1 | pos_random_invalida $end
$var reg 1 } fim_time_prep $end
$comment eatual is not handled $end
$comment eprox is not handled $end
$upscope $end
$scope module fd $end
$var reg 1 !" clock $end
$var reg 4 "" escolha_display[3:0] $end
$var reg 7 #" escolha_carta[6:0] $end
$var reg 1 $" reg_en_display $end
$var reg 1 %" reg_en_carta $end
$var reg 1 &" reg_en_jogada1 $end
$var reg 1 '" reg_en_jogada2 $end
$var reg 1 (" jogada_seleciona_mux $end
$var reg 1 )" escreve $end
$var reg 1 *" reg_en_chute1 $end
$var reg 1 +" reg_en_chute2 $end
$var reg 1 ," troca_jogador $end
$var reg 1 -" conta_player $end
$var reg 1 ." zera_regs $end
$var reg 1 /" zera_timeout $end
$var reg 1 0" conflito_mem $end
$var reg 1 1" igual_selecao $end
$var reg 1 2" jogada_carta $end
$var reg 1 3" jogada_display $end
$var reg 1 4" fim_jogo $end
$var reg 1 5" time_out $end
$var reg 4 6" animal_mem[3:0] $end
$var reg 1 7" jogador_vez $end
$var reg 1 8" par_correto $end
$var reg 4 9" pontos_jogador1[3:0] $end
$var reg 4 :" pontos_jogador2[3:0] $end
$var reg 5 ;" posicao_carta1[4:0] $end
$var reg 5 <" posicao_carta2[4:0] $end
$var reg 4 =" pontos_total[3:0] $end
$var reg 1 >" troca_posicao $end
$var reg 1 ?" endereco_random_sel $end
$var reg 1 @" en_random_generator $end
$var reg 1 A" registra_random $end
$var reg 1 B" zera_time_prep $end
$var reg 1 C" en_time_prep $end
$var reg 1 D" pos_random_invalida $end
$var reg 1 E" fim_time_prep $end
$var reg 2 F" s_escolha_display_codififcado[1:0] $end
$var reg 3 G" s_escolha_carta_codififcado[2:0] $end
$var reg 5 H" s_posicao_escolhida[4:0] $end
$var reg 5 I" s_escolha1[4:0] $end
$var reg 5 J" s_escolha2[4:0] $end
$var reg 5 K" s_endereco[4:0] $end
$var reg 4 L" s_invalid[3:0] $end
$var reg 1 M" s_not_escreve $end
$var reg 1 N" s_seleciona_jogador $end
$var reg 1 O" s_conta_ponto_jogador1 $end
$var reg 1 P" s_conta_ponto_jogador2 $end
$var reg 4 Q" s_animal_mem[3:0] $end
$var reg 4 R" s_animal_chute1[3:0] $end
$var reg 4 S" s_animal_chute2[3:0] $end
$var reg 1 T" s_sinal_display $end
$var reg 1 U" s_sinal_carta $end
$var reg 4 V" pontos_jog1_sig[3:0] $end
$var reg 4 W" pontos_jog2_sig[3:0] $end
$var reg 5 X" endereco1_sig[4:0] $end
$var reg 5 Y" endereco2_sig[4:0] $end
$var reg 5 Z" random_endereco_sig[4:0] $end
$scope module r1 $end
$upscope $end
$scope module r2 $end
$upscope $end
$scope module r3 $end
$upscope $end
$scope module r4 $end
$upscope $end
$scope module cod4to2 $end
$upscope $end
$scope module cod7to3 $end
$upscope $end
$scope module comparador_jogadas $end
$upscope $end
$scope module mux_dut $end
$var reg 1 [" sel $end
$var reg 5 \" i[4:0] $end
$var reg 5 ]" j[4:0] $end
$var reg 5 ^" y[4:0] $end
$upscope $end
$scope module memoria $end
$upscope $end
$scope module mux_random_addr $end
$var reg 1 _" sel $end
$var reg 5 `" i[4:0] $end
$var reg 5 a" j[4:0] $end
$var reg 5 b" y[4:0] $end
$upscope $end
$scope module gerador_random $end
$var reg 1 c" clock $end
$var reg 1 d" enable $end
$var reg 5 e" dado[4:0] $end
$var reg 28 f" dado28[27:0] $end
$var reg 28 g" dado28prox[27:0] $end
$scope module gen(3) $end
$upscope $end
$scope module gen(4) $end
$upscope $end
$scope module gen(5) $end
$upscope $end
$scope module gen(6) $end
$upscope $end
$scope module gen(7) $end
$upscope $end
$scope module gen(8) $end
$upscope $end
$scope module gen(9) $end
$upscope $end
$scope module gen(10) $end
$upscope $end
$scope module gen(11) $end
$upscope $end
$scope module gen(12) $end
$upscope $end
$scope module gen(13) $end
$upscope $end
$scope module gen(14) $end
$upscope $end
$scope module gen(15) $end
$upscope $end
$scope module gen(16) $end
$upscope $end
$scope module gen(17) $end
$upscope $end
$scope module gen(18) $end
$upscope $end
$scope module gen(19) $end
$upscope $end
$scope module gen(20) $end
$upscope $end
$scope module gen(21) $end
$upscope $end
$scope module gen(22) $end
$upscope $end
$scope module gen(23) $end
$upscope $end
$scope module gen(24) $end
$upscope $end
$scope module gen(25) $end
$upscope $end
$scope module gen(26) $end
$upscope $end
$upscope $end
$scope module reg_random_end $end
$upscope $end
$scope module comparador_pos_random_invalida $end
$upscope $end
$scope module contador_preparacao $end
$upscope $end
$scope module comparador_invalid $end
$upscope $end
$scope module r5 $end
$upscope $end
$scope module r6 $end
$upscope $end
$scope module comparador_chutes $end
$upscope $end
$scope module contador_troca_jogador $end
$upscope $end
$scope module demux_dut $end
$upscope $end
$scope module contador_pontos_jogador1 $end
$upscope $end
$scope module contador_pontos_jogador2 $end
$upscope $end
$scope module contador_pares_encontrados $end
$upscope $end
$scope module timeout_counter $end
$upscope $end
$scope module detector_display $end
$upscope $end
$scope module detector_carta $end
$upscope $end
$scope module comparador_pontuacao $end
$upscope $end
$upscope $end
$scope module circuito_display_dut $end
$var reg 1 h" clock $end
$var reg 1 i" reset $end
$var reg 4 j" opcode[3:0] $end
$var reg 4 k" end_animal[3:0] $end
$var reg 1 l" jogador_vez $end
$var reg 5 m" posicao_carta1[4:0] $end
$var reg 5 n" posicao_carta2[4:0] $end
$var reg 4 o" placar1[3:0] $end
$var reg 4 p" placar2[3:0] $end
$var reg 42 q" display[41:0] $end
$var reg 1 r" fim_display $end
$var reg 1 s" zera_timer_texto $end
$var reg 1 t" escolha_posicao $end
$var reg 1 u" pisca $end
$var reg 1 v" mux_sel_display $end
$var reg 1 w" escreve_reg $end
$var reg 1 x" reset_reg $end
$var reg 3 y" escolha_mem_sig[2:0] $end
$var reg 1 z" fim_timer_texto $end
$var reg 1 {" meio_timer_texto $end
$scope module fd $end
$var reg 1 |" clock $end
$var reg 1 }" reset $end
$var reg 4 !# placar1[3:0] $end
$var reg 4 "# placar2[3:0] $end
$var reg 4 ## end_animal[3:0] $end
$var reg 5 $# posicao1[4:0] $end
$var reg 5 %# posicao2[4:0] $end
$var reg 1 &# zera_timer_texto $end
$var reg 3 '# escolha_mem[2:0] $end
$var reg 1 (# escolha_posicao $end
$var reg 1 )# pisca $end
$var reg 1 *# mux_sel_display $end
$var reg 1 +# escreve_reg $end
$var reg 1 ,# reset_reg $end
$var reg 1 -# fim_timer_texto $end
$var reg 1 .# meio_timer_texto $end
$var reg 42 /# display[41:0] $end
$var reg 5 0# mux_output_endereco[4:0] $end
$var reg 42 1# texto_sig[41:0] $end
$var reg 6 2# posicao_sig[5:0] $end
$var reg 28 3# idle_display[27:0] $end
$var reg 42 4# placar_display[41:0] $end
$var reg 7 5# placar1p[6:0] $end
$var reg 7 6# placar2p[6:0] $end
$var reg 40 7# enderecos_memoria[39:0] $end
$var reg 9 8# piscada[8:0] $end
$var reg 7 9# placar1p_not[6:0] $end
$var reg 7 :# placar2p_not[6:0] $end
$scope module text_memory $end
$var reg 1 ;# clk $end
$var reg 5 <# endereco[4:0] $end
$var reg 42 =# dado_entrada[41:0] $end
$var reg 1 ># we $end
$var reg 1 ?# ce $end
$var reg 42 @# dado_saida[41:0] $end
$comment memoria is not handled $end
$upscope $end
$scope module mux_display $end
$var reg 1 A# sel $end
$var reg 42 B# i[41:0] $end
$var reg 42 C# j[41:0] $end
$var reg 42 D# y[41:0] $end
$upscope $end
$scope module conta_tempo_texto $end
$upscope $end
$scope module conta_frequencia_piscada $end
$upscope $end
$scope module mux_mem_endereco $end
$var reg 3 E# sel[2:0] $end
$var reg 40 F# i[39:0] $end
$var reg 5 G# y[4:0] $end
$upscope $end
$scope module br $end
$var reg 1 H# clock $end
$var reg 1 I# reset $end
$var reg 5 J# endereco1[4:0] $end
$var reg 5 K# endereco2[4:0] $end
$var reg 1 L# escolhe_endereco $end
$var reg 1 M# escreve $end
$var reg 28 N# dado_saida[27:0] $end
$var reg 1 O# pisca $end
$var reg 1 P# frequencia $end
$var reg 32 Q# ent_s[31:0] $end
$var integer 32 R# end1_s $end
$var integer 32 S# end2_s $end
$var reg 32 T# ent_pisca[31:0] $end
$var reg 32 U# ent_show[31:0] $end
$scope module gen(0) $end
$upscope $end
$scope module gen(1) $end
$upscope $end
$scope module gen(2) $end
$upscope $end
$scope module gen(3) $end
$upscope $end
$scope module gen(4) $end
$upscope $end
$scope module gen(5) $end
$upscope $end
$scope module gen(6) $end
$upscope $end
$scope module gen(7) $end
$upscope $end
$scope module gen(8) $end
$upscope $end
$scope module gen(9) $end
$upscope $end
$scope module gen(10) $end
$upscope $end
$scope module gen(11) $end
$upscope $end
$scope module gen(12) $end
$upscope $end
$scope module gen(13) $end
$upscope $end
$scope module gen(14) $end
$upscope $end
$scope module gen(15) $end
$upscope $end
$scope module gen(16) $end
$upscope $end
$scope module gen(17) $end
$upscope $end
$scope module gen(18) $end
$upscope $end
$scope module gen(19) $end
$upscope $end
$scope module gen(20) $end
$upscope $end
$scope module gen(21) $end
$upscope $end
$scope module gen(22) $end
$upscope $end
$scope module gen(23) $end
$upscope $end
$scope module gen(24) $end
$upscope $end
$scope module gen(25) $end
$upscope $end
$scope module gen(26) $end
$upscope $end
$scope module gen(27) $end
$upscope $end
$scope module gen(28) $end
$upscope $end
$scope module gen(29) $end
$upscope $end
$scope module gen(30) $end
$upscope $end
$scope module gen(31) $end
$upscope $end
$upscope $end
$scope module hex0 $end
$upscope $end
$scope module hex1 $end
$upscope $end
$upscope $end
$scope module uc $end
$var reg 4 V# opcode[3:0] $end
$var reg 1 W# jogador_vez $end
$var reg 1 X# fim_display $end
$var reg 1 Y# zera_timer_texto $end
$var reg 3 Z# escolha_mem[2:0] $end
$var reg 1 [# escolha_posicao $end
$var reg 1 \# pisca $end
$var reg 1 ]# mux_sel_display $end
$var reg 1 ^# escreve_reg $end
$var reg 1 _# reset_reg $end
$var reg 1 `# fim_timer_texto $end
$var reg 1 a# meio_timer_texto $end
$upscope $end
$upscope $end
$upscope $end
$upscope $end
$enddefinitions $end
#0
0!
1"
0#
b0000 $
b0000000 %
b0 &
b0000000 '
b0000000 (
b0000000 )
b0000000 *
b0000000 +
1,
0-
1.
0/
b0000 0
b0000000 1
b111101101010111111011010011111110110100011 2
U3
U4
U5
U6
U7
U8
09
0:
0;
0<
0=
0>
0?
0@
0A
0B
0C
UD
1E
0F
UG
b00000000 H
bUUUU I
bUUUU J
bUUUU K
bUUUUU L
bUUUUU M
b0001 N
bUUUU O
UP
bUUUU Q
b1111111 R
b000010010101000000100101100000001001011100 S
0T
0U
1V
0W
0X
0Y
UZ
U[
0\
1]
0^
U_
U`
Ua
Ub
Uc
Ud
Ue
0f
0g
0h
0i
0j
0k
0l
0m
0n
0o
0p
Uq
1r
0s
b00000000 t
b0001 u
0v
0w
1x
0y
0z
0{
U|
U}
0!"
b0000 ""
b1111111 #"
0$"
0%"
0&"
0'"
0("
0)"
0*"
0+"
0,"
0-"
0."
1/"
U0"
U1"
U2"
U3"
U4"
U5"
bUUUU 6"
U7"
U8"
bUUUU 9"
bUUUU :"
bUUUUU ;"
bUUUUU <"
bUUUU ="
0>"
0?"
1@"
0A"
0B"
0C"
UD"
UE"
bUU F"
bUUU G"
bUUUUU H"
bUUUUU I"
bUUUUU J"
bUUUUU K"
b1111 L"
1M"
UN"
UO"
UP"
bUUUU Q"
bUUUU R"
bUUUU S"
0T"
1U"
bUUUU V"
bUUUU W"
bUUUUU X"
bUUUUU Y"
b01101 Z"
0["
bUUUUU \"
bUUUUU ]"
bUUUUU ^"
0_"
bUUUUU `"
b01101 a"
bUUUUU b"
0c"
1d"
b01101 e"
b1010110101101011010110101101 f"
b0101101011010110101101010011 g"
0h"
1i"
b0001 j"
bUUUU k"
Ul"
bUUUUU m"
bUUUUU n"
bUUUU o"
bUUUU p"
b000010010101000000100101100000001001011100 q"
Ur"
0s"
0t"
0u"
1v"
0w"
0x"
b010 y"
Uz"
U{"
0|"
1}"
bUUUU !#
bUUUU "#
bUUUU ##
bUUUUU $#
bUUUUU %#
0&#
b010 '#
0(#
0)#
1*#
0+#
0,#
U-#
U.#
b000010010101000000100101100000001001011100 /#
b01111 0#
b000010010101000000100101100000001001011100 1#
bUUUUUU 2#
b000000U000000000000000000000 3#
b000000U000000000000000000000UUUUUUUUUUUUUU 4#
bUUUUUUU 5#
bUUUUUUU 6#
b111111001110010100011000001111011100UUUU 7#
bUUUUUUUUU 8#
bUUUUUUU 9#
bUUUUUUU :#
0;#
b01111 <#
b000000000000000000000000000000000000000000 =#
1>#
0?#
b000010010101000000100101100000001001011100 @#
1A#
b000000U000000000000000000000UUUUUUUUUUUUUU B#
b000010010101000000100101100000001001011100 C#
b000010010101000000100101100000001001011100 D#
b010 E#
b111111001110010100011000001111011100UUUU F#
b01111 G#
0H#
1I#
bUUUUU J#
bUUUUU K#
0L#
0M#
b000000U000000000000000000000 N#
0O#
UP#
b00000000000000000000000000000000 Q#
b0 R#
b0 S#
bUUUUUUUUUUUUUUUUUUUUUUUUUUUUUUUU T#
b0000000000000000000000000000000U U#
b0001 V#
UW#
UX#
0Y#
b010 Z#
0[#
0\#
1]#
0^#
0_#
U`#
Ua#
#10000000
1!
1-
1\
1!"
b10011 Z"
b10011 a"
1c"
b10011 e"
b0101101011010110101101010011 f"
b1011010110101101011010100110 g"
1h"
1|"
1;#
1H#
#20000000
0!
0"
0-
0.
0\
0]
0!"
0c"
0h"
0i"
0|"
0}"
0;#
0H#
0I#
#30000000
1!
1-
1\
1!"
b00110 Z"
b00110 a"
1c"
b00110 e"
b1011010110101101011010100110 f"
b0110101101011010110101000101 g"
1h"
1|"
1;#
1H#
#40000000
0!
1#
0-
1/
0\
1^
0!"
0c"
0h"
0|"
0;#
0H#
#50000000
1!
1-
b100001111000010001000111101100001111111111 2
19
b00000001 H
b0010 N
0P
b011110000111101110111000010011110000000000 S
1X
1\
0e
1f
b00000001 t
b0010 u
1z
1!"
1."
1B"
b00101 Z"
b00101 a"
1c"
b00101 e"
b0110101101011010110101000101 f"
b1101011010110101101010001010 g"
1h"
b0010 j"
b011110000111101110111000010011110000000000 q"
0r"
1s"
1x"
b111 y"
1|"
1&#
b111 '#
1,#
b011110000111101110111000010011110000000000 /#
b11111 0#
b011110000111101110111000010011110000000000 1#
1;#
b11111 <#
b011110000111101110111000010011110000000000 @#
b011110000111101110111000010011110000000000 C#
b011110000111101110111000010011110000000000 D#
b111 E#
b11111 G#
1H#
b0010 V#
0X#
1Y#
b111 Z#
1_#
#60000000
0!
0#
0-
0/
0\
0^
0!"
0c"
0h"
0|"
0;#
0H#
#70000000
1!
1-
09
b11111111 H
0V
1W
0X
1\
0f
b11111111 t
0x
1y
0z
1!"
0."
0@"
1A"
0B"
b01010 Z"
b01010 a"
1c"
0d"
b01010 e"
b1101011010110101101010001010 f"
b1010110101101011010100011101 g"
1h"
1|"
1;#
1H#
